<?xml version="1.0" standalone="no"?>
<!DOCTYPE svg PUBLIC "-//W3C//DTD SVG 1.1//EN" "http://www.w3.org/Graphics/SVG/1.1/DTD/svg11.dtd" >
<svg xmlns="http://www.w3.org/2000/svg">
<metadata>Generated by IcoMoon</metadata>
<defs>
<font id="travel" horiz-adv-x="1024">
<font-face units-per-em="1024" ascent="960" descent="-64" />
<missing-glyph horiz-adv-x="1024" />
<glyph unicode="&#x20;" horiz-adv-x="512" d="" />
<glyph unicode="&#xe900;" glyph-name="arrow-down" d="M1013.768 685.029l-51.299 51.295c-6.836 6.85-14.71 10.264-23.612 10.264-8.88 0-16.751-3.414-23.587-10.264l-403.265-403.244-403.247 403.233c-6.839 6.85-14.71 10.264-23.601 10.264-8.895 0-16.765-3.414-23.601-10.264l-51.292-51.299c-6.85-6.836-10.264-14.706-10.264-23.601 0-8.888 3.425-16.758 10.264-23.594l478.14-478.151c6.836-6.839 14.71-10.257 23.601-10.257s16.751 3.418 23.583 10.257l478.18 478.151c6.836 6.839 10.232 14.71 10.232 23.594 0 8.895-3.396 16.765-10.232 23.615z" />
<glyph unicode="&#xe901;" glyph-name="call" d="M1001.042 150.739l-158.141 158.158c-31.499 31.372-83.661 30.419-116.257-2.189l-79.672-79.654c-5.034 2.774-10.244 5.672-15.721 8.746-50.312 27.877-119.173 66.086-191.634 138.601-72.676 72.667-110.921 141.634-138.883 191.978-2.951 5.334-5.778 10.476-8.57 15.36l79.76 79.713c32.646 32.655 33.546 84.803 2.121 116.266l-158.141 158.176c-31.425 31.419-83.611 30.466-116.257-2.189l-44.569-44.825 1.218-1.209c-14.945-19.069-27.433-41.063-36.726-64.78-8.567-22.576-13.9-44.119-16.339-65.707-20.881-173.112 58.226-331.323 272.912-546.013 296.762-296.741 535.913-274.324 546.23-273.23 22.47 2.686 44.005 8.055 65.889 16.554 23.511 9.185 45.49 21.655 64.548 36.568l0.974-0.865 45.152 44.213c32.578 32.649 33.517 84.814 2.106 116.328z" />
<glyph unicode="&#xe902;" glyph-name="email" d="M98.284 602.281c12.953-9.141 52-36.289 117.142-81.429 65.144-45.141 115.048-79.898 149.715-104.274 3.809-2.672 11.901-8.48 24.28-17.433 12.381-8.959 22.669-16.198 30.855-21.72 8.192-5.52 18.095-11.713 29.72-18.568 11.62-6.849 22.574-12.001 32.86-15.411 10.288-3.439 19.81-5.142 28.571-5.142h1.151c8.76 0 18.287 1.705 28.575 5.142 10.282 3.41 21.246 8.568 32.856 15.411 11.616 6.863 21.52 13.050 29.712 18.568 8.192 5.522 18.471 12.761 30.857 21.72 12.377 8.961 20.479 14.761 24.288 17.433 35.042 24.376 124.193 86.283 267.425 185.716 27.808 19.42 51.041 42.853 69.705 70.283 18.678 27.418 28.006 56.181 28.006 86.273 0 25.146-9.053 46.672-27.15 64.575-18.095 17.907-39.527 26.856-64.281 26.856h-841.144c-29.331 0-51.904-9.903-67.713-29.71-15.808-19.81-23.711-44.573-23.711-74.284 0-24 10.48-50.007 31.429-78.005 20.947-28 43.24-50.003 66.855-66zM966.85 541.144c-124.939-84.564-219.809-150.284-284.562-197.146-21.714-15.994-39.329-28.479-52.857-37.425-13.528-8.953-31.519-18.095-53.999-27.424-22.472-9.343-43.416-14-62.848-14h-1.157c-19.428 0-40.383 4.657-62.856 14-22.472 9.329-40.476 18.471-53.999 27.424-13.52 8.947-31.141 21.432-52.853 37.425-51.432 37.712-146.097 103.436-283.999 197.146-21.72 14.467-40.958 31.049-57.72 49.712v-453.701c0-25.158 8.949-46.672 26.856-64.577 17.903-17.911 39.431-26.864 64.575-26.864h841.146c25.138 0 46.664 8.953 64.569 26.864 17.911 17.911 26.856 39.417 26.856 64.577v453.701c-16.384-18.277-35.426-34.859-57.152-49.712z" />
<glyph unicode="&#xe903;" glyph-name="facebook" d="M767.965 959.787l-132.79 0.213c-149.185 0-245.595-98.913-245.595-252.008v-116.192h-133.514c-11.537 0-20.88-9.353-20.88-20.891v-168.35c0-11.537 9.353-20.88 20.88-20.88h133.514v-424.8c0-11.537 9.343-20.88 20.88-20.88h174.198c11.537 0 20.88 9.353 20.88 20.88v424.8h156.109c11.537 0 20.88 9.343 20.88 20.88l0.064 168.35c0 5.54-2.205 10.845-6.115 14.765s-9.236 6.125-14.776 6.125h-156.163v98.498c0 47.342 11.282 71.375 72.952 71.375l89.453 0.032c11.527 0 20.869 9.353 20.869 20.88v156.322c0 11.516-9.332 20.859-20.848 20.88z" />
<glyph unicode="&#xe904;" glyph-name="instagram" d="M741.403 960h-458.823c-155.814 0-282.579-126.771-282.579-282.585v-458.823c0-155.82 126.765-282.585 282.579-282.585h458.823c155.826 0 282.591 126.771 282.591 282.585v458.823c0.006 155.814-126.765 282.585-282.591 282.585zM933.146 218.591c0-105.723-86.014-191.732-191.738-191.732h-458.829c-105.717-0.006-191.726 86.008-191.726 191.732v458.823c0 105.717 86.008 191.732 191.726 191.732h458.823c105.723 0 191.738-86.014 191.738-191.732v-458.823zM511.997 711.848c-145.493 0-263.857-118.364-263.857-263.857 0-145.487 118.364-263.845 263.857-263.845s263.857 118.358 263.857 263.845c0 145.493-118.364 263.857-263.857 263.857zM511.997 275.005c-95.39 0-173.004 77.601-173.004 172.992 0 95.396 77.607 173.004 173.004 173.004s173.004-77.607 173.004-173.004c0-95.39-77.613-172.992-173.004-172.992zM786.92 788.886c-17.504 0-34.7-7.087-47.062-19.503-12.423-12.356-19.564-29.558-19.564-47.123 0-17.511 7.147-34.706 19.564-47.123 12.356-12.356 29.558-19.503 47.062-19.503 17.565 0 34.706 7.147 47.123 19.503 12.417 12.417 19.503 29.618 19.503 47.123 0 17.565-7.087 34.767-19.503 47.123-12.356 12.417-29.558 19.503-47.123 19.503z" />
<glyph unicode="&#xe905;" glyph-name="linkedin" d="M0 640h228.992v-704h-228.992v704zM852.736 631.744c-2.432 0.768-4.736 1.6-7.296 2.304-3.072 0.704-6.144 1.28-9.28 1.792-12.16 2.432-25.472 4.16-41.088 4.16-133.504 0-218.176-97.088-246.080-134.592v134.592h-228.992v-704h228.992v384c0 0 173.056 241.024 246.080 64 0-158.016 0-448 0-448h228.928v475.072c0 106.368-72.896 195.008-171.264 220.672zM224 848c0-61.856-50.144-112-112-112s-112 50.144-112 112c0 61.856 50.144 112 112 112s112-50.144 112-112z" />
<glyph unicode="&#xe906;" glyph-name="login" d="M505.297 960c-108.699 0-212.554-33.658-300.329-97.335-10.057-7.296-12.788-21.104-6.272-31.682l82.441-133.741c3.468-5.623 9.123-9.55 15.605-10.83 6.475-1.283 13.202 0.197 18.549 4.072 51.31 37.223 112.026 56.896 175.583 56.896 165.078 0 299.377-134.299 299.377-299.377s-134.299-299.377-299.377-299.377c-63.56 0-124.276 19.673-175.583 56.896-5.348 3.882-12.074 5.351-18.549 4.072-6.482-1.279-12.136-5.21-15.605-10.83l-82.441-133.748c-6.516-10.578-3.786-24.386 6.272-31.682 87.774-63.678 191.629-97.335 300.329-97.335 282.317 0 512 229.683 512 512s-229.679 512-512 512zM372.329 280.35c-4.858-7.285-5.313-16.653-1.176-24.376 4.13-7.72 12.174-12.54 20.932-12.54h160.73c7.937 0 15.353 3.968 19.756 10.574l120.546 180.82c5.32 7.978 5.32 18.363 0 26.341l-120.546 180.82c-4.403 6.606-11.819 10.574-19.756 10.574h-160.73c-8.757 0-16.801-4.82-20.932-12.54-4.134-7.723-3.682-17.091 1.176-24.376l55.755-83.634h-337.365c-46.328 0-84.016-37.688-84.016-84.016s37.688-84.016 84.016-84.016h337.365l-55.755-83.634z" />
<glyph unicode="&#xe907;" glyph-name="map" d="M512 516.267c65.877 0 119.467 53.606 119.467 119.467s-53.589 119.467-119.467 119.467-119.467-53.606-119.467-119.467 53.589-119.467 119.467-119.467zM512 721.067c47.053 0 85.333-38.281 85.333-85.333s-38.281-85.333-85.333-85.333-85.333 38.281-85.333 85.333 38.281 85.333 85.333 85.333zM508.979 25.481l261.82 378.146c98.202 130.918 84.002 346.112-30.396 460.493-61.815 61.833-144.009 95.881-231.424 95.881s-169.609-34.048-231.424-95.863c-114.398-114.381-128.597-329.574-30.788-459.981l262.212-378.675zM301.687 840.004c55.381 55.364 128.99 85.862 207.292 85.862s151.91-30.498 207.292-85.862c103.253-103.236 115.968-297.591 26.846-416.41l-234.138-338.142-234.513 338.654c-88.747 118.306-76.015 312.661 27.221 415.898zM718.797 226.014c-9.387 1.143-17.852-5.581-18.944-14.95s5.598-17.852 14.95-18.944c179.473-21.129 275.063-78.063 275.063-111.053 0-46.319-181.794-110.933-477.867-110.933s-477.867 64.614-477.867 110.933c0 32.99 95.59 89.924 275.063 111.053 9.353 1.092 16.043 9.591 14.95 18.944-1.109 9.37-9.574 16.128-18.944 14.95-179.695-21.163-305.203-80.759-305.203-144.947 0-72.090 175.872-145.067 512-145.067s512 72.977 512 145.067c0 64.188-125.508 123.785-305.203 144.947z" />
<glyph unicode="&#xe908;" glyph-name="right-arrow" d="M689.55 797.181c-13.95 14.438-37.168 14.438-51.606 0-13.95-13.95-13.95-37.168 0-51.086l261.674-261.674h-863.49c-20.129-0.033-36.128-16.032-36.128-36.16s15.999-36.648 36.128-36.648h863.49l-261.674-261.187c-13.95-14.438-13.95-37.689 0-51.606 14.438-14.438 37.689-14.438 51.606 0l323.622 323.622c14.438 13.95 14.438 37.168 0 51.086l-323.622 323.654z" />
<glyph unicode="&#xe909;" glyph-name="send" d="M971.387 936.241l-943.29-494.648c-38.803-20.337-37.211-50.145 3.502-66.264l120.428-47.598c40.634-16.078 102.241-7.363 136.785 19.66l523.024 412.426c34.385 27.102 38.087 23.083 8.198-8.915l-413.5-442.672c-29.968-31.878-21.053-70.96 19.7-86.839l14.088-5.532c40.753-15.76 107.375-42.265 147.929-58.821l133.562-54.364c40.594-16.516 73.785-30.207 73.785-30.445s0.239-0.995 0.438-1.035c0.199-0.080 9.79 34.385 21.252 76.651l203.686 748.479c11.462 42.305-10.785 60.214-49.588 39.917zM410.874 171.206l-92.411 37.808c-40.514 16.596-59.936-2.865-43.141-43.34 0.040 0 85.804-206.71 83.416-213.993-2.467-7.243 82.302 122.657 82.302 122.657 23.958 36.694 10.347 80.272-30.167 96.868z" />
<glyph unicode="&#xe90a;" glyph-name="share" d="M1014.176 700.912l0.032 0.032c0.032 0.048 0.064 0.096 0.096 0.16 2.752 3.12 4.768 6.88 6.384 10.848 0.512 1.216 0.848 2.368 1.216 3.6 0.928 3.056 1.504 6.224 1.696 9.536 0.096 1.216 0.288 2.368 0.256 3.616 0 0.64 0.16 1.216 0.128 1.84-0.224 3.824-0.992 7.52-2.176 10.992-0.096 0.368-0.352 0.656-0.48 1.024-1.408 3.824-3.424 7.216-5.808 10.32-0.336 0.432-0.448 1.008-0.8 1.44l-164.976 194.336c-12.624 14.88-33.344 15.168-46.304 0.592-12.928-14.56-13.168-38.432-0.512-53.344l88.928-104.784c-129.936 17.216-257.664-10.128-263.696-11.472-394.336-71.472-673.392-435.632-622.080-811.776 2.544-18.624 16.448-31.872 32.304-31.872 1.696 0 3.392 0.144 5.12 0.432 17.856 3.248 30.048 22.544 27.264 43.136-45.712 335.040 208.896 660.512 568.592 725.728 1.648 0.384 133.616 28.704 257.872 9.184l-137.232-81.488c-16.080-9.568-22.368-32.32-14.096-50.832 8.256-18.544 27.968-25.728 44.096-16.272l216.32 128.448c2.928 1.776 5.552 4 7.856 6.576z" />
<glyph unicode="&#xe90b;" glyph-name="twitter" d="M1024 765.504c-38.080-16.704-78.656-27.776-120.96-33.152 43.52 25.984 76.736 66.816 92.352 116.032-40.576-24.192-85.376-41.28-133.12-50.816-38.528 41.024-93.44 66.432-153.344 66.432-116.224 0-209.792-94.336-209.792-209.984 0-16.64 1.408-32.64 4.864-47.872-174.528 8.512-328.96 92.16-432.704 219.584-18.112-31.424-28.736-67.392-28.736-106.112 0-72.704 37.44-137.152 93.248-174.464-33.728 0.64-66.816 10.432-94.848 25.856 0-0.64 0-1.472 0-2.304 0-102.016 72.768-186.752 168.192-206.272-17.088-4.672-35.712-6.912-55.040-6.912-13.44 0-27.008 0.768-39.744 3.584 27.2-83.136 104.384-144.256 196.16-146.24-71.424-55.872-162.112-89.536-260.288-89.536-17.216 0-33.728 0.768-50.24 2.88 92.992-59.968 203.2-94.208 322.048-94.208 386.304 0 597.504 320 597.504 597.376 0 9.28-0.32 18.24-0.768 27.136 41.664 29.568 76.672 66.496 105.216 108.992z" />
<glyph unicode="&#xe90c;" glyph-name="user" d="M900.414 78.001c0 53.636-30.314 102.682-78.283 126.658l-168.642 84.321c-21.786 10.893-35.558 33.174-35.558 57.538v66.172c4.732 5.385 10.169 12.323 15.96 20.515 22.987 32.45 40.36 68.167 52.418 105.649 21.628 6.656 37.553 26.642 37.553 50.388v70.621c0 15.537-6.903 29.431-17.655 39.142v102.1c0 0 20.957 158.897-194.207 158.897-215.181 0-194.207-158.897-194.207-158.897v-102.1c-10.752-9.71-17.655-23.605-17.655-39.142v-70.621c0-18.609 9.781-34.975 24.417-44.438 17.638-76.835 63.859-132.114 63.859-132.114v-64.53c0-23.534-12.853-45.197-33.527-56.461l-157.502-85.928c-45.497-24.806-73.799-72.492-73.799-124.31v-39.53c0 0 0-11.599 0-17.655 0-48.746 173.903-88.276 388.414-88.276s388.414 39.53 388.414 88.276c0 6.056 0 17.655 0 17.655v36.070z" />
</font></defs></svg>